<?xml version="1.0" encoding="UTF-8"?>
<sch:schema xmlns:sch="http://purl.oclc.org/dsdl/schematron" queryBinding="xslt2">
  <sch:ns prefix="f" uri="http://hl7.org/fhir"/>
  <sch:ns prefix="h" uri="http://www.w3.org/1999/xhtml"/>
  <!-- 
    This file contains just the constraints for the profile ActivityDefinition
    It includes the base constraints for the resource as well.
    Because of the way that schematrons and containment work, 
    you may need to use this schematron fragment to build a, 
    single schematron that validates contained resources (if you have any) 
  -->
  <sch:pattern>
    <sch:title>f:ActivityDefinition</sch:title>
    <sch:rule context="f:ActivityDefinition">
      <sch:assert test="count(f:extension[@url = 'http://example.org/br-and-r/soa/StructureDefinition/planned-visit-study-day']) &lt;= 1">extension with URL = 'http://example.org/br-and-r/soa/StructureDefinition/planned-visit-study-day': maximum cardinality of 'extension' is 1</sch:assert>
      <sch:assert test="count(f:extension[@url = 'http://example.org/br-and-r/soa/StructureDefinition/planned-visit-study-windows']) &lt;= 1">extension with URL = 'http://example.org/br-and-r/soa/StructureDefinition/planned-visit-study-windows': maximum cardinality of 'extension' is 1</sch:assert>
      <sch:assert test="count(f:extension[@url = 'http://example.org/br-and-r/soa/StructureDefinition/planned-visit-study-oid']) &lt;= 1">extension with URL = 'http://example.org/br-and-r/soa/StructureDefinition/planned-visit-study-oid': maximum cardinality of 'extension' is 1</sch:assert>
    </sch:rule>
  </sch:pattern>
  <sch:pattern>
    <sch:title>ActivityDefinition</sch:title>
    <sch:rule context="f:ActivityDefinition">
      <sch:assert test="not(exists(f:name/@value)) or matches(f:name/@value, '[A-Z]([A-Za-z0-9_]){0,254}')">Name should be usable as an identifier for the module by machine processing applications such as code generation (inherited)</sch:assert>
      <sch:assert test="not(parent::f:contained and f:contained)">If the resource is contained in another resource, it SHALL NOT contain nested Resources (inherited)</sch:assert>
      <sch:assert test="not(exists(for $id in f:contained/*/f:id/@value return $contained[not(parent::*/descendant::f:reference/@value=concat('#', $contained/*/id/@value) or descendant::f:reference[@value='#'])]))">If the resource is contained in another resource, it SHALL be referred to from elsewhere in the resource or SHALL refer to the containing resource (inherited)</sch:assert>
      <sch:assert test="not(exists(f:contained/*/f:meta/f:versionId)) and not(exists(f:contained/*/f:meta/f:lastUpdated))">If a resource is contained in another resource, it SHALL NOT have a meta.versionId or a meta.lastUpdated (inherited)</sch:assert>
      <sch:assert test="not(exists(f:contained/*/f:meta/f:security))">If a resource is contained in another resource, it SHALL NOT have a security label (inherited)</sch:assert>
      <sch:assert test="exists(f:text/h:div)">A resource should have narrative for robust management (inherited)</sch:assert>
    </sch:rule>
  </sch:pattern>
  <sch:pattern>
    <sch:title>ActivityDefinition.meta</sch:title>
    <sch:rule context="f:ActivityDefinition/f:meta">
      <sch:assert test="@value|f:*|h:div">All FHIR elements must have a @value or children (inherited)</sch:assert>
    </sch:rule>
  </sch:pattern>
  <sch:pattern>
    <sch:title>ActivityDefinition.implicitRules</sch:title>
    <sch:rule context="f:ActivityDefinition/f:implicitRules">
      <sch:assert test="@value|f:*|h:div">All FHIR elements must have a @value or children (inherited)</sch:assert>
    </sch:rule>
  </sch:pattern>
  <sch:pattern>
    <sch:title>ActivityDefinition.language</sch:title>
    <sch:rule context="f:ActivityDefinition/f:language">
      <sch:assert test="@value|f:*|h:div">All FHIR elements must have a @value or children (inherited)</sch:assert>
    </sch:rule>
  </sch:pattern>
  <sch:pattern>
    <sch:title>ActivityDefinition.text</sch:title>
    <sch:rule context="f:ActivityDefinition/f:text">
      <sch:assert test="@value|f:*|h:div">All FHIR elements must have a @value or children (inherited)</sch:assert>
    </sch:rule>
  </sch:pattern>
  <sch:pattern>
    <sch:title>ActivityDefinition.extension</sch:title>
    <sch:rule context="f:ActivityDefinition/f:extension">
      <sch:assert test="@value|f:*|h:div">All FHIR elements must have a @value or children (inherited)</sch:assert>
      <sch:assert test="exists(f:extension)!=exists(f:*[starts-with(local-name(.), &quot;value&quot;)])">Must have either extensions or value[x], not both (inherited)</sch:assert>
      <sch:assert test="@value|f:*|h:div">All FHIR elements must have a @value or children (inherited)</sch:assert>
      <sch:assert test="exists(f:extension)!=exists(f:*[starts-with(local-name(.), 'value')])">Must have either extensions or value[x], not both (inherited)</sch:assert>
      <sch:assert test="@value|f:*|h:div">All FHIR elements must have a @value or children (inherited)</sch:assert>
      <sch:assert test="exists(f:extension)!=exists(f:*[starts-with(local-name(.), 'value')])">Must have either extensions or value[x], not both (inherited)</sch:assert>
      <sch:assert test="@value|f:*|h:div">All FHIR elements must have a @value or children (inherited)</sch:assert>
      <sch:assert test="exists(f:extension)!=exists(f:*[starts-with(local-name(.), 'value')])">Must have either extensions or value[x], not both (inherited)</sch:assert>
    </sch:rule>
  </sch:pattern>
  <sch:pattern>
    <sch:title>ActivityDefinition.modifierExtension</sch:title>
    <sch:rule context="f:ActivityDefinition/f:modifierExtension">
      <sch:assert test="@value|f:*|h:div">All FHIR elements must have a @value or children (inherited)</sch:assert>
      <sch:assert test="exists(f:extension)!=exists(f:*[starts-with(local-name(.), &quot;value&quot;)])">Must have either extensions or value[x], not both (inherited)</sch:assert>
    </sch:rule>
  </sch:pattern>
  <sch:pattern>
    <sch:title>ActivityDefinition.url</sch:title>
    <sch:rule context="f:ActivityDefinition/f:url">
      <sch:assert test="@value|f:*|h:div">All FHIR elements must have a @value or children (inherited)</sch:assert>
    </sch:rule>
  </sch:pattern>
  <sch:pattern>
    <sch:title>ActivityDefinition.identifier</sch:title>
    <sch:rule context="f:ActivityDefinition/f:identifier">
      <sch:assert test="@value|f:*|h:div">All FHIR elements must have a @value or children (inherited)</sch:assert>
    </sch:rule>
  </sch:pattern>
  <sch:pattern>
    <sch:title>ActivityDefinition.version</sch:title>
    <sch:rule context="f:ActivityDefinition/f:version">
      <sch:assert test="@value|f:*|h:div">All FHIR elements must have a @value or children (inherited)</sch:assert>
    </sch:rule>
  </sch:pattern>
  <sch:pattern>
    <sch:title>ActivityDefinition.name</sch:title>
    <sch:rule context="f:ActivityDefinition/f:name">
      <sch:assert test="@value|f:*|h:div">All FHIR elements must have a @value or children (inherited)</sch:assert>
    </sch:rule>
  </sch:pattern>
  <sch:pattern>
    <sch:title>ActivityDefinition.title</sch:title>
    <sch:rule context="f:ActivityDefinition/f:title">
      <sch:assert test="@value|f:*|h:div">All FHIR elements must have a @value or children (inherited)</sch:assert>
    </sch:rule>
  </sch:pattern>
  <sch:pattern>
    <sch:title>ActivityDefinition.subtitle</sch:title>
    <sch:rule context="f:ActivityDefinition/f:subtitle">
      <sch:assert test="@value|f:*|h:div">All FHIR elements must have a @value or children (inherited)</sch:assert>
    </sch:rule>
  </sch:pattern>
  <sch:pattern>
    <sch:title>ActivityDefinition.status</sch:title>
    <sch:rule context="f:ActivityDefinition/f:status">
      <sch:assert test="@value|f:*|h:div">All FHIR elements must have a @value or children (inherited)</sch:assert>
    </sch:rule>
  </sch:pattern>
  <sch:pattern>
    <sch:title>ActivityDefinition.experimental</sch:title>
    <sch:rule context="f:ActivityDefinition/f:experimental">
      <sch:assert test="@value|f:*|h:div">All FHIR elements must have a @value or children (inherited)</sch:assert>
    </sch:rule>
  </sch:pattern>
  <sch:pattern>
    <sch:title>ActivityDefinition.subject[x] 1</sch:title>
    <sch:rule context="f:ActivityDefinition/f:subject[x]">
      <sch:assert test="@value|f:*|h:div">All FHIR elements must have a @value or children (inherited)</sch:assert>
    </sch:rule>
  </sch:pattern>
  <sch:pattern>
    <sch:title>ActivityDefinition.date</sch:title>
    <sch:rule context="f:ActivityDefinition/f:date">
      <sch:assert test="@value|f:*|h:div">All FHIR elements must have a @value or children (inherited)</sch:assert>
    </sch:rule>
  </sch:pattern>
  <sch:pattern>
    <sch:title>ActivityDefinition.publisher</sch:title>
    <sch:rule context="f:ActivityDefinition/f:publisher">
      <sch:assert test="@value|f:*|h:div">All FHIR elements must have a @value or children (inherited)</sch:assert>
    </sch:rule>
  </sch:pattern>
  <sch:pattern>
    <sch:title>ActivityDefinition.contact</sch:title>
    <sch:rule context="f:ActivityDefinition/f:contact">
      <sch:assert test="@value|f:*|h:div">All FHIR elements must have a @value or children (inherited)</sch:assert>
    </sch:rule>
  </sch:pattern>
  <sch:pattern>
    <sch:title>ActivityDefinition.description</sch:title>
    <sch:rule context="f:ActivityDefinition/f:description">
      <sch:assert test="@value|f:*|h:div">All FHIR elements must have a @value or children (inherited)</sch:assert>
    </sch:rule>
  </sch:pattern>
  <sch:pattern>
    <sch:title>ActivityDefinition.useContext</sch:title>
    <sch:rule context="f:ActivityDefinition/f:useContext">
      <sch:assert test="@value|f:*|h:div">All FHIR elements must have a @value or children (inherited)</sch:assert>
    </sch:rule>
  </sch:pattern>
  <sch:pattern>
    <sch:title>ActivityDefinition.jurisdiction</sch:title>
    <sch:rule context="f:ActivityDefinition/f:jurisdiction">
      <sch:assert test="@value|f:*|h:div">All FHIR elements must have a @value or children (inherited)</sch:assert>
    </sch:rule>
  </sch:pattern>
  <sch:pattern>
    <sch:title>ActivityDefinition.purpose</sch:title>
    <sch:rule context="f:ActivityDefinition/f:purpose">
      <sch:assert test="@value|f:*|h:div">All FHIR elements must have a @value or children (inherited)</sch:assert>
    </sch:rule>
  </sch:pattern>
  <sch:pattern>
    <sch:title>ActivityDefinition.usage</sch:title>
    <sch:rule context="f:ActivityDefinition/f:usage">
      <sch:assert test="@value|f:*|h:div">All FHIR elements must have a @value or children (inherited)</sch:assert>
    </sch:rule>
  </sch:pattern>
  <sch:pattern>
    <sch:title>ActivityDefinition.copyright</sch:title>
    <sch:rule context="f:ActivityDefinition/f:copyright">
      <sch:assert test="@value|f:*|h:div">All FHIR elements must have a @value or children (inherited)</sch:assert>
    </sch:rule>
  </sch:pattern>
  <sch:pattern>
    <sch:title>ActivityDefinition.approvalDate</sch:title>
    <sch:rule context="f:ActivityDefinition/f:approvalDate">
      <sch:assert test="@value|f:*|h:div">All FHIR elements must have a @value or children (inherited)</sch:assert>
    </sch:rule>
  </sch:pattern>
  <sch:pattern>
    <sch:title>ActivityDefinition.lastReviewDate</sch:title>
    <sch:rule context="f:ActivityDefinition/f:lastReviewDate">
      <sch:assert test="@value|f:*|h:div">All FHIR elements must have a @value or children (inherited)</sch:assert>
    </sch:rule>
  </sch:pattern>
  <sch:pattern>
    <sch:title>ActivityDefinition.effectivePeriod</sch:title>
    <sch:rule context="f:ActivityDefinition/f:effectivePeriod">
      <sch:assert test="@value|f:*|h:div">All FHIR elements must have a @value or children (inherited)</sch:assert>
    </sch:rule>
  </sch:pattern>
  <sch:pattern>
    <sch:title>ActivityDefinition.topic</sch:title>
    <sch:rule context="f:ActivityDefinition/f:topic">
      <sch:assert test="@value|f:*|h:div">All FHIR elements must have a @value or children (inherited)</sch:assert>
    </sch:rule>
  </sch:pattern>
  <sch:pattern>
    <sch:title>ActivityDefinition.author</sch:title>
    <sch:rule context="f:ActivityDefinition/f:author">
      <sch:assert test="@value|f:*|h:div">All FHIR elements must have a @value or children (inherited)</sch:assert>
    </sch:rule>
  </sch:pattern>
  <sch:pattern>
    <sch:title>ActivityDefinition.editor</sch:title>
    <sch:rule context="f:ActivityDefinition/f:editor">
      <sch:assert test="@value|f:*|h:div">All FHIR elements must have a @value or children (inherited)</sch:assert>
    </sch:rule>
  </sch:pattern>
  <sch:pattern>
    <sch:title>ActivityDefinition.reviewer</sch:title>
    <sch:rule context="f:ActivityDefinition/f:reviewer">
      <sch:assert test="@value|f:*|h:div">All FHIR elements must have a @value or children (inherited)</sch:assert>
    </sch:rule>
  </sch:pattern>
  <sch:pattern>
    <sch:title>ActivityDefinition.endorser</sch:title>
    <sch:rule context="f:ActivityDefinition/f:endorser">
      <sch:assert test="@value|f:*|h:div">All FHIR elements must have a @value or children (inherited)</sch:assert>
    </sch:rule>
  </sch:pattern>
  <sch:pattern>
    <sch:title>ActivityDefinition.relatedArtifact</sch:title>
    <sch:rule context="f:ActivityDefinition/f:relatedArtifact">
      <sch:assert test="@value|f:*|h:div">All FHIR elements must have a @value or children (inherited)</sch:assert>
    </sch:rule>
  </sch:pattern>
  <sch:pattern>
    <sch:title>ActivityDefinition.library</sch:title>
    <sch:rule context="f:ActivityDefinition/f:library">
      <sch:assert test="@value|f:*|h:div">All FHIR elements must have a @value or children (inherited)</sch:assert>
    </sch:rule>
  </sch:pattern>
  <sch:pattern>
    <sch:title>ActivityDefinition.kind</sch:title>
    <sch:rule context="f:ActivityDefinition/f:kind">
      <sch:assert test="@value|f:*|h:div">All FHIR elements must have a @value or children (inherited)</sch:assert>
    </sch:rule>
  </sch:pattern>
  <sch:pattern>
    <sch:title>ActivityDefinition.profile</sch:title>
    <sch:rule context="f:ActivityDefinition/f:profile">
      <sch:assert test="@value|f:*|h:div">All FHIR elements must have a @value or children (inherited)</sch:assert>
    </sch:rule>
  </sch:pattern>
  <sch:pattern>
    <sch:title>ActivityDefinition.code</sch:title>
    <sch:rule context="f:ActivityDefinition/f:code">
      <sch:assert test="@value|f:*|h:div">All FHIR elements must have a @value or children (inherited)</sch:assert>
    </sch:rule>
  </sch:pattern>
  <sch:pattern>
    <sch:title>ActivityDefinition.intent</sch:title>
    <sch:rule context="f:ActivityDefinition/f:intent">
      <sch:assert test="@value|f:*|h:div">All FHIR elements must have a @value or children (inherited)</sch:assert>
    </sch:rule>
  </sch:pattern>
  <sch:pattern>
    <sch:title>ActivityDefinition.priority</sch:title>
    <sch:rule context="f:ActivityDefinition/f:priority">
      <sch:assert test="@value|f:*|h:div">All FHIR elements must have a @value or children (inherited)</sch:assert>
    </sch:rule>
  </sch:pattern>
  <sch:pattern>
    <sch:title>ActivityDefinition.doNotPerform</sch:title>
    <sch:rule context="f:ActivityDefinition/f:doNotPerform">
      <sch:assert test="@value|f:*|h:div">All FHIR elements must have a @value or children (inherited)</sch:assert>
    </sch:rule>
  </sch:pattern>
  <sch:pattern>
    <sch:title>ActivityDefinition.timing[x] 1</sch:title>
    <sch:rule context="f:ActivityDefinition/f:timing[x]">
      <sch:assert test="@value|f:*|h:div">All FHIR elements must have a @value or children (inherited)</sch:assert>
    </sch:rule>
  </sch:pattern>
  <sch:pattern>
    <sch:title>ActivityDefinition.location</sch:title>
    <sch:rule context="f:ActivityDefinition/f:location">
      <sch:assert test="@value|f:*|h:div">All FHIR elements must have a @value or children (inherited)</sch:assert>
    </sch:rule>
  </sch:pattern>
  <sch:pattern>
    <sch:title>ActivityDefinition.participant</sch:title>
    <sch:rule context="f:ActivityDefinition/f:participant">
      <sch:assert test="@value|f:*|h:div">All FHIR elements must have a @value or children (inherited)</sch:assert>
    </sch:rule>
  </sch:pattern>
  <sch:pattern>
    <sch:title>ActivityDefinition.participant.extension</sch:title>
    <sch:rule context="f:ActivityDefinition/f:participant/f:extension">
      <sch:assert test="@value|f:*|h:div">All FHIR elements must have a @value or children (inherited)</sch:assert>
      <sch:assert test="exists(f:extension)!=exists(f:*[starts-with(local-name(.), &quot;value&quot;)])">Must have either extensions or value[x], not both (inherited)</sch:assert>
    </sch:rule>
  </sch:pattern>
  <sch:pattern>
    <sch:title>ActivityDefinition.participant.modifierExtension</sch:title>
    <sch:rule context="f:ActivityDefinition/f:participant/f:modifierExtension">
      <sch:assert test="@value|f:*|h:div">All FHIR elements must have a @value or children (inherited)</sch:assert>
      <sch:assert test="exists(f:extension)!=exists(f:*[starts-with(local-name(.), &quot;value&quot;)])">Must have either extensions or value[x], not both (inherited)</sch:assert>
    </sch:rule>
  </sch:pattern>
  <sch:pattern>
    <sch:title>ActivityDefinition.participant.type</sch:title>
    <sch:rule context="f:ActivityDefinition/f:participant/f:type">
      <sch:assert test="@value|f:*|h:div">All FHIR elements must have a @value or children (inherited)</sch:assert>
    </sch:rule>
  </sch:pattern>
  <sch:pattern>
    <sch:title>ActivityDefinition.participant.role</sch:title>
    <sch:rule context="f:ActivityDefinition/f:participant/f:role">
      <sch:assert test="@value|f:*|h:div">All FHIR elements must have a @value or children (inherited)</sch:assert>
    </sch:rule>
  </sch:pattern>
  <sch:pattern>
    <sch:title>ActivityDefinition.product[x] 1</sch:title>
    <sch:rule context="f:ActivityDefinition/f:product[x]">
      <sch:assert test="@value|f:*|h:div">All FHIR elements must have a @value or children (inherited)</sch:assert>
    </sch:rule>
  </sch:pattern>
  <sch:pattern>
    <sch:title>ActivityDefinition.quantity</sch:title>
    <sch:rule context="f:ActivityDefinition/f:quantity">
      <sch:assert test="@value|f:*|h:div">All FHIR elements must have a @value or children (inherited)</sch:assert>
    </sch:rule>
  </sch:pattern>
  <sch:pattern>
    <sch:title>ActivityDefinition.dosage</sch:title>
    <sch:rule context="f:ActivityDefinition/f:dosage">
      <sch:assert test="@value|f:*|h:div">All FHIR elements must have a @value or children (inherited)</sch:assert>
    </sch:rule>
  </sch:pattern>
  <sch:pattern>
    <sch:title>ActivityDefinition.bodySite</sch:title>
    <sch:rule context="f:ActivityDefinition/f:bodySite">
      <sch:assert test="@value|f:*|h:div">All FHIR elements must have a @value or children (inherited)</sch:assert>
    </sch:rule>
  </sch:pattern>
  <sch:pattern>
    <sch:title>ActivityDefinition.specimenRequirement</sch:title>
    <sch:rule context="f:ActivityDefinition/f:specimenRequirement">
      <sch:assert test="@value|f:*|h:div">All FHIR elements must have a @value or children (inherited)</sch:assert>
    </sch:rule>
  </sch:pattern>
  <sch:pattern>
    <sch:title>ActivityDefinition.observationRequirement</sch:title>
    <sch:rule context="f:ActivityDefinition/f:observationRequirement">
      <sch:assert test="@value|f:*|h:div">All FHIR elements must have a @value or children (inherited)</sch:assert>
    </sch:rule>
  </sch:pattern>
  <sch:pattern>
    <sch:title>ActivityDefinition.observationResultRequirement</sch:title>
    <sch:rule context="f:ActivityDefinition/f:observationResultRequirement">
      <sch:assert test="@value|f:*|h:div">All FHIR elements must have a @value or children (inherited)</sch:assert>
    </sch:rule>
  </sch:pattern>
  <sch:pattern>
    <sch:title>ActivityDefinition.transform</sch:title>
    <sch:rule context="f:ActivityDefinition/f:transform">
      <sch:assert test="@value|f:*|h:div">All FHIR elements must have a @value or children (inherited)</sch:assert>
    </sch:rule>
  </sch:pattern>
  <sch:pattern>
    <sch:title>ActivityDefinition.dynamicValue</sch:title>
    <sch:rule context="f:ActivityDefinition/f:dynamicValue">
      <sch:assert test="@value|f:*|h:div">All FHIR elements must have a @value or children (inherited)</sch:assert>
    </sch:rule>
  </sch:pattern>
  <sch:pattern>
    <sch:title>ActivityDefinition.dynamicValue.extension</sch:title>
    <sch:rule context="f:ActivityDefinition/f:dynamicValue/f:extension">
      <sch:assert test="@value|f:*|h:div">All FHIR elements must have a @value or children (inherited)</sch:assert>
      <sch:assert test="exists(f:extension)!=exists(f:*[starts-with(local-name(.), &quot;value&quot;)])">Must have either extensions or value[x], not both (inherited)</sch:assert>
    </sch:rule>
  </sch:pattern>
  <sch:pattern>
    <sch:title>ActivityDefinition.dynamicValue.modifierExtension</sch:title>
    <sch:rule context="f:ActivityDefinition/f:dynamicValue/f:modifierExtension">
      <sch:assert test="@value|f:*|h:div">All FHIR elements must have a @value or children (inherited)</sch:assert>
      <sch:assert test="exists(f:extension)!=exists(f:*[starts-with(local-name(.), &quot;value&quot;)])">Must have either extensions or value[x], not both (inherited)</sch:assert>
    </sch:rule>
  </sch:pattern>
  <sch:pattern>
    <sch:title>ActivityDefinition.dynamicValue.path</sch:title>
    <sch:rule context="f:ActivityDefinition/f:dynamicValue/f:path">
      <sch:assert test="@value|f:*|h:div">All FHIR elements must have a @value or children (inherited)</sch:assert>
    </sch:rule>
  </sch:pattern>
  <sch:pattern>
    <sch:title>ActivityDefinition.dynamicValue.expression</sch:title>
    <sch:rule context="f:ActivityDefinition/f:dynamicValue/f:expression">
      <sch:assert test="@value|f:*|h:div">All FHIR elements must have a @value or children (inherited)</sch:assert>
    </sch:rule>
  </sch:pattern>
</sch:schema>
